{
	"info": {
		"_postman_id": "fb995e66-5c1c-4a1e-9e76-0ccac909daeb",
		"name": "Kaiju Base App",
		"schema": "https://schema.getpostman.com/json/collection/v2.1.0/collection.json",
		"_exporter_id": "4157807"
	},
	"item": [
		{
			"name": "Auth / Login",
			"request": {
				"method": "POST",
				"header": [
					{
						"key": "Content-Type",
						"value": "application/json",
						"type": "text"
					},
					{
						"key": "User-Agent",
						"value": "postman-test",
						"type": "text"
					}
				],
				"body": {
					"mode": "raw",
					"raw": "{\n    \"method\": \"auth.login\",\n    \"params\": {\n        \"username\": \"{{username}}\",\n        \"password\": \"{{password}}\"\n    }\n}"
				},
				"url": {
					"raw": "http://{{host}}:{{port}}/public/rpc",
					"protocol": "http",
					"host": [
						"{{host}}"
					],
					"port": "{{port}}",
					"path": [
						"public",
						"rpc"
					]
				}
			},
			"response": []
		},
		{
			"name": "Auth / Logout",
			"request": {
				"method": "POST",
				"header": [
					{
						"key": "Content-Type",
						"value": "application/json",
						"type": "text"
					},
					{
						"key": "User-Agent",
						"value": "postman-test",
						"type": "text"
					}
				],
				"body": {
					"mode": "raw",
					"raw": "{\n    \"method\": \"auth.logout\"\n}"
				},
				"url": {
					"raw": "http://{{host}}:{{port}}/public/rpc",
					"protocol": "http",
					"host": [
						"{{host}}"
					],
					"port": "{{port}}",
					"path": [
						"public",
						"rpc"
					]
				}
			},
			"response": []
		},
		{
			"name": "Auth / Change password",
			"request": {
				"method": "POST",
				"header": [
					{
						"key": "Content-Type",
						"value": "application/json",
						"type": "text"
					},
					{
						"key": "User-Agent",
						"value": "postman-test",
						"type": "text"
					}
				],
				"body": {
					"mode": "raw",
					"raw": "{\n    \"method\": \"auth.login\",\n    \"params\": {\n        \"username\": \"{{username}}\",\n        \"password\": \"{{password}}\"\n    }\n}"
				},
				"url": {
					"raw": "http://{{host}}:{{port}}/public/rpc",
					"protocol": "http",
					"host": [
						"{{host}}"
					],
					"port": "{{port}}",
					"path": [
						"public",
						"rpc"
					]
				}
			},
			"response": []
		},
		{
			"name": "Auth / Get token",
			"request": {
				"method": "POST",
				"header": [
					{
						"key": "Content-Type",
						"value": "application/json",
						"type": "text"
					},
					{
						"key": "User-Agent",
						"value": "postman-test",
						"type": "text",
						"disabled": true
					}
				],
				"body": {
					"mode": "raw",
					"raw": "{\n    \"method\": \"auth.jwt.get\",\n    \"params\": {\n        \"username\": \"{{username}}\",\n        \"password\": \"{{password}}\"\n    }\n}"
				},
				"url": {
					"raw": "http://{{host}}:{{port}}/public/rpc",
					"protocol": "http",
					"host": [
						"{{host}}"
					],
					"port": "{{port}}",
					"path": [
						"public",
						"rpc"
					]
				}
			},
			"response": []
		},
		{
			"name": "Auth / Refresh token",
			"request": {
				"method": "POST",
				"header": [
					{
						"key": "Content-Type",
						"value": "application/json",
						"type": "text"
					},
					{
						"key": "User-Agent",
						"value": "postman-test",
						"type": "text",
						"disabled": true
					}
				],
				"body": {
					"mode": "raw",
					"raw": "{\n    \"method\": \"auth.jwt.get\",\n    \"params\": {\n        \"username\": \"{{username}}\",\n        \"password\": \"{{password}}\"\n    }\n}"
				},
				"url": {
					"raw": "http://{{host}}:{{port}}/public/rpc",
					"protocol": "http",
					"host": [
						"{{host}}"
					],
					"port": "{{port}}",
					"path": [
						"public",
						"rpc"
					]
				}
			},
			"response": []
		},
		{
			"name": "Examples / Request",
			"request": {
				"method": "POST",
				"header": [
					{
						"key": "Content-Type",
						"value": "application/json",
						"type": "text"
					},
					{
						"key": "User-Agent",
						"value": "postman-test",
						"type": "text",
						"description": "User agent is used to match stored sessions."
					},
					{
						"key": "X-Session-Id",
						"value": "ae08421fd0e2abda4687347a0ac41dd3",
						"description": "You can pass session Id as a plain header.",
						"type": "text",
						"disabled": true
					}
				],
				"body": {
					"mode": "raw",
					"raw": "{\n    \"method\": \"echo.echo\",\n    \"params\": {\"some_data\": true}\n}"
				},
				"url": {
					"raw": "http://{{host}}:{{port}}/public/rpc",
					"protocol": "http",
					"host": [
						"{{host}}"
					],
					"port": "{{port}}",
					"path": [
						"public",
						"rpc"
					]
				}
			},
			"response": []
		},
		{
			"name": "Examples / Batch",
			"request": {
				"method": "POST",
				"header": [
					{
						"key": "Content-Type",
						"value": "application/json",
						"type": "text"
					},
					{
						"key": "User-Agent",
						"value": "postman-test",
						"type": "text",
						"description": "User agent is used to match stored sessions."
					},
					{
						"key": "X-Session-Id",
						"value": "ae08421fd0e2abda4687347a0ac41dd3",
						"description": "You can pass session Id as a plain header.",
						"type": "text",
						"disabled": true
					}
				],
				"body": {
					"mode": "raw",
					"raw": "[\n    {\n        \"method\": \"echo.echo\",\n        \"params\": {\n            \"data\": true\n        }\n    },\n    {\n        \"method\": \"echo.echo\",\n        \"params\": {\n            \"some_data\": true\n        }\n    }\n]"
				},
				"url": {
					"raw": "http://{{host}}:{{port}}/public/rpc",
					"protocol": "http",
					"host": [
						"{{host}}"
					],
					"port": "{{port}}",
					"path": [
						"public",
						"rpc"
					]
				}
			},
			"response": []
		},
		{
			"name": "Examples / Template batch",
			"request": {
				"method": "POST",
				"header": [
					{
						"key": "Content-Type",
						"value": "application/json",
						"type": "text"
					},
					{
						"key": "User-Agent",
						"value": "postman-test",
						"type": "text",
						"description": "User agent is used to match stored sessions."
					},
					{
						"key": "X-Session-Id",
						"value": "ae08421fd0e2abda4687347a0ac41dd3",
						"description": "You can pass session Id as a plain header.",
						"type": "text",
						"disabled": true
					},
					{
						"key": "RPC-Batch-Template",
						"value": "?1",
						"type": "text"
					}
				],
				"body": {
					"mode": "raw",
					"raw": "[\n    {\n        \"method\": \"echo.echo\",\n        \"params\": {\"data\": {\"inner\": 0}}\n    },\n    {\n        \"method\": \"echo.echo\",\n        \"params\": {\"data\": \"[!x:bool:[0.inner]]\"}\n    }\n]"
				},
				"url": {
					"raw": "http://{{host}}:{{port}}/public/rpc",
					"protocol": "http",
					"host": [
						"{{host}}"
					],
					"port": "{{port}}",
					"path": [
						"public",
						"rpc"
					]
				}
			},
			"response": []
		},
		{
			"name": "Tasks / Create",
			"request": {
				"method": "POST",
				"header": [
					{
						"key": "Content-Type",
						"value": "application/json",
						"type": "text"
					},
					{
						"key": "User-Agent",
						"value": "postman-test",
						"type": "text",
						"description": "User agent is used to match stored sessions."
					},
					{
						"key": "X-Session-Id",
						"value": "ae08421fd0e2abda4687347a0ac41dd3",
						"description": "You can pass session Id as a plain header.",
						"type": "text",
						"disabled": true
					}
				],
				"body": {
					"mode": "raw",
					"raw": "{\n    \"method\": \"tasks.create\",\n    \"params\": {\n        \"data\": {\n            \"id\": \"system.useless.echo\",\n            \"description\": \"Useless echo task.\",\n            \"commands\": [\n                {\n                    \"method\": \"echo.echo\",\n                    \"params\": {\n                        \"data\": \"[kws.flag]\"\n                    }\n                }\n            ],\n            \"kws\": {\n                \"flag\": true\n            },\n            \"cron\": \"* * * * *\"\n        }\n    }\n}"
				},
				"url": {
					"raw": "http://{{host}}:{{port}}/public/rpc",
					"protocol": "http",
					"host": [
						"{{host}}"
					],
					"port": "{{port}}",
					"path": [
						"public",
						"rpc"
					]
				}
			},
			"response": []
		},
		{
			"name": "Tasks / Reset",
			"request": {
				"method": "POST",
				"header": [
					{
						"key": "Content-Type",
						"value": "application/json",
						"type": "text"
					},
					{
						"key": "User-Agent",
						"value": "postman-test",
						"type": "text",
						"description": "User agent is used to match stored sessions."
					},
					{
						"key": "X-Session-Id",
						"value": "ae08421fd0e2abda4687347a0ac41dd3",
						"description": "You can pass session Id as a plain header.",
						"type": "text",
						"disabled": true
					}
				],
				"body": {
					"mode": "raw",
					"raw": "{\n    \"method\": \"tasks.reset\",\n    \"params\": {\n        \"id\": \"system.useless.echo\"\n    }\n}"
				},
				"url": {
					"raw": "http://{{host}}:{{port}}/public/rpc",
					"protocol": "http",
					"host": [
						"{{host}}"
					],
					"port": "{{port}}",
					"path": [
						"public",
						"rpc"
					]
				}
			},
			"response": []
		},
		{
			"name": "Tasks / Get",
			"request": {
				"method": "POST",
				"header": [
					{
						"key": "Content-Type",
						"value": "application/json",
						"type": "text"
					},
					{
						"key": "User-Agent",
						"value": "postman-test",
						"type": "text",
						"description": "User agent is used to match stored sessions."
					},
					{
						"key": "X-Session-Id",
						"value": "ae08421fd0e2abda4687347a0ac41dd3",
						"description": "You can pass session Id as a plain header.",
						"type": "text",
						"disabled": true
					}
				],
				"body": {
					"mode": "raw",
					"raw": "{\n    \"method\": \"tasks.get\",\n    \"params\": {\n        \"id\": \"system.useless.echo\"\n    }\n}"
				},
				"url": {
					"raw": "http://{{host}}:{{port}}/public/rpc",
					"protocol": "http",
					"host": [
						"{{host}}"
					],
					"port": "{{port}}",
					"path": [
						"public",
						"rpc"
					]
				}
			},
			"response": []
		},
		{
			"name": "Tasks / List",
			"request": {
				"method": "POST",
				"header": [
					{
						"key": "Content-Type",
						"value": "application/json",
						"type": "text"
					},
					{
						"key": "User-Agent",
						"value": "postman-test",
						"type": "text",
						"description": "User agent is used to match stored sessions."
					},
					{
						"key": "X-Session-Id",
						"value": "ae08421fd0e2abda4687347a0ac41dd3",
						"description": "You can pass session Id as a plain header.",
						"type": "text",
						"disabled": true
					}
				],
				"body": {
					"mode": "raw",
					"raw": "{\n    \"method\": \"tasks.list\"\n}"
				},
				"url": {
					"raw": "http://{{host}}:{{port}}/public/rpc",
					"protocol": "http",
					"host": [
						"{{host}}"
					],
					"port": "{{port}}",
					"path": [
						"public",
						"rpc"
					]
				}
			},
			"response": []
		},
		{
			"name": "Tasks / Results",
			"request": {
				"method": "POST",
				"header": [
					{
						"key": "Content-Type",
						"value": "application/json",
						"type": "text"
					},
					{
						"key": "User-Agent",
						"value": "postman-test",
						"type": "text",
						"description": "User agent is used to match stored sessions."
					},
					{
						"key": "X-Session-Id",
						"value": "ae08421fd0e2abda4687347a0ac41dd3",
						"description": "You can pass session Id as a plain header.",
						"type": "text",
						"disabled": true
					}
				],
				"body": {
					"mode": "raw",
					"raw": "{\n    \"method\": \"notifications.list\",\n    \"params\": {\n        \"conditions\": {\n            \"task_id\": \"system.useless.echo\"\n        },\n        \"sort\": [{\"desc\": \"created\"}],\n        \"columns\": [\"id\", \"created\", \"status\", \"job_id\", \"result\", \"exit_code\", \"error\"]\n    }\n}"
				},
				"url": {
					"raw": "http://{{host}}:{{port}}/public/rpc",
					"protocol": "http",
					"host": [
						"{{host}}"
					],
					"port": "{{port}}",
					"path": [
						"public",
						"rpc"
					]
				}
			},
			"response": []
		},
		{
			"name": "System / Asyncio status",
			"request": {
				"method": "POST",
				"header": [
					{
						"key": "Content-Type",
						"value": "application/json",
						"type": "text"
					},
					{
						"key": "User-Agent",
						"value": "postman-test",
						"type": "text",
						"description": "User agent is used to match stored sessions."
					},
					{
						"key": "X-Session-Id",
						"value": "ae08421fd0e2abda4687347a0ac41dd3",
						"description": "You can pass session Id as a plain header.",
						"type": "text",
						"disabled": true
					}
				],
				"body": {
					"mode": "raw",
					"raw": "{\n    \"method\": \"rpc.routes\"\n}"
				},
				"url": {
					"raw": "http://{{host}}:{{port}}/public/rpc",
					"protocol": "http",
					"host": [
						"{{host}}"
					],
					"port": "{{port}}",
					"path": [
						"public",
						"rpc"
					]
				}
			},
			"response": []
		},
		{
			"name": "System / Tasks",
			"request": {
				"method": "POST",
				"header": [
					{
						"key": "Content-Type",
						"value": "application/json",
						"type": "text"
					},
					{
						"key": "User-Agent",
						"value": "postman-test",
						"type": "text",
						"description": "User agent is used to match stored sessions."
					},
					{
						"key": "X-Session-Id",
						"value": "ae08421fd0e2abda4687347a0ac41dd3",
						"description": "You can pass session Id as a plain header.",
						"type": "text",
						"disabled": true
					}
				],
				"body": {
					"mode": "raw",
					"raw": "{\n    \"method\": \"Scheduler.tasks\"\n}"
				},
				"url": {
					"raw": "http://{{host}}:{{port}}/public/rpc",
					"protocol": "http",
					"host": [
						"{{host}}"
					],
					"port": "{{port}}",
					"path": [
						"public",
						"rpc"
					]
				}
			},
			"response": []
		},
		{
			"name": "System / RPC routes",
			"request": {
				"method": "POST",
				"header": [
					{
						"key": "Content-Type",
						"value": "application/json",
						"type": "text"
					},
					{
						"key": "User-Agent",
						"value": "postman-test",
						"type": "text",
						"description": "User agent is used to match stored sessions."
					},
					{
						"key": "X-Session-Id",
						"value": "ae08421fd0e2abda4687347a0ac41dd3",
						"description": "You can pass session Id as a plain header.",
						"type": "text",
						"disabled": true
					}
				],
				"body": {
					"mode": "raw",
					"raw": "{\n    \"method\": \"rpc.info\"\n}"
				},
				"url": {
					"raw": "http://{{host}}:{{port}}/public/rpc",
					"protocol": "http",
					"host": [
						"{{host}}"
					],
					"port": "{{port}}",
					"path": [
						"public",
						"rpc"
					]
				}
			},
			"response": []
		}
	]
}
